labfourthsecond/simulation/qsim/labfourthsecond.msim.vcd
$comment
	File created using the following command:
		vcd file labfourthsecond.msim.vcd -direction
$end
$date
	Mon Nov 28 00:16:33 2022
$end
$version
	ModelSim Version 10.1d
$end
$timescale
	1ps
$end
$scope module labfourthsecond_vlg_vec_tst $end
$var reg 1 ! a $end
$var reg 1 " b $end
$var reg 1 # clock $end
$var wire 1 $ q [3] $end
$var wire 1 % q [2] $end
$var wire 1 & q [1] $end
$var wire 1 ' q [0] $end
$var wire 1 ( sampler $end
$scope module i1 $end
$var wire 1 ) gnd $end
$var wire 1 * vcc $end
$var wire 1 + unknown $end
$var tri1 1 , devclrn $end
$var tri1 1 - devpor $end
$var tri1 1 . devoe $end
$var wire 1 / q[0]~output_o $end
$var wire 1 0 q[1]~output_o $end
$var wire 1 1 q[2]~output_o $end
$var wire 1 2 q[3]~output_o $end
$var wire 1 3 clock~input_o $end
$var wire 1 4 clock~inputclkctrl_outclk $end
$var wire 1 5 a~input_o $end
$var wire 1 6 $00002~0_combout $end
$var wire 1 7 $00002~2_combout $end
$var wire 1 8 b~input_o $end
$var wire 1 9 $00002~1_combout $end
$var wire 1 : r[2]~0_combout $end
$var wire 1 ; r[2]~1_combout $end
$var wire 1 < $00002~3_combout $end
$var wire 1 = $00002~q $end
$var wire 1 > $00001~0_combout $end
$var wire 1 ? $00001~1_combout $end
$var wire 1 @ $00001~q $end
$var wire 1 A $00003~0_combout $end
$var wire 1 B $00003~1_combout $end
$var wire 1 C $00003~q $end
$var wire 1 D $00000~1_combout $end
$var wire 1 E $00000~0_combout $end
$var wire 1 F $00000~2_combout $end
$var wire 1 G $00000~q $end
$upscope $end
$upscope $end
$enddefinitions $end
#0
$dumpvars
0!
0"
0#
0'
0&
0%
0$
x(
0)
1*
x+
1,
1-
1.
0/
00
01
02
03
04
05
06
07
08
09
0:
0;
0<
0=
0>
1?
0@
0A
0B
0C
1D
0E
1F
0G
$end
#12000
1#
13
14
0(
1G
1@
0F
1E
0?
1:
0D
1A
1>
1/
10
1'
1&
1F
1B
1?
#24000
0#
03
04
1(
#36000
1#
13
14
0(
1C
0E
1D
0B
0A
0?
17
12
1$
0F
1B
1<
#48000
0#
03
04
1(
#60000
1#
13
14
0(
0G
0@
1=
1F
0B
0:
0D
1A
0>
1;
0/
00
11
0'
0&
1%
0;
1?
0F
#72000
0#
03
04
1(
#84000
1#
13
14
0(
0C
1@
1B
0A
0?
07
16
1>
02
10
0$
1&
0B
#96000
0#
03
04
1(
#108000
1#
13
14
0(
0@
1D
1A
0>
00
0&
1F
1B
#120000
0#
03
04
1(
#132000
1#
13
14
0(
1G
1C
0F
1?
1:
06
0D
1/
12
1'
1$
1;
0<
1F
1<
#144000
0#
03
04
1(
#156000
1#
13
14
0(
1@
1E
0B
1>
0;
17
10
1&
#168000
0#
03
04
1(
#180000
1#
13
14
0(
0C
1B
0A
0?
07
16
02
0$
0B
#192000
0#
03
04
1(
#204000
1#
13
14
0(
0@
0E
1D
1B
1A
0>
06
00
0&
0F
0B
0<
#216000
0#
03
04
1(
#228000
1"
1#
18
13
14
0(
0:
0G
0=
1F
1B
1?
0A
0/
01
0'
0%
0B
#240000
0#
03
04
1(
#252000
1#
13
14
0(
1G
1@
0F
1E
0?
0D
1A
1>
1/
10
1'
1&
1F
1B
1?
#264000
0#
03
04
1(
#276000
1#
13
14
0(
1C
0E
1D
0B
0A
0?
19
17
12
1$
0F
1B
1<
#288000
0#
03
04
1(
#300000
1#
13
14
0(
0G
0@
1=
1F
0B
09
0D
1A
0>
0/
00
11
0'
0&
1%
0F
1?
#312000
0#
03
04
1(
#324000
1#
13
14
0(
0C
1@
1B
0A
0?
07
16
1>
02
10
0$
1&
0B
#336000
0#
03
04
1(
#348000
1#
13
14
0(
0@
1D
1A
0>
00
0&
1F
1B
#360000
0#
03
04
1(
#372000
1#
13
14
0(
1G
1C
0F
1?
06
0D
1/
12
1'
1$
0<
#384000
0#
03
04
1(
#396000
1#
13
14
0(
0G
1@
0=
19
1D
0A
1>
0/
10
01
0'
1&
0%
1<
1F
0B
#408000
0#
03
04
1(
#420000
1#
13
14
0(
1G
0C
1=
0F
1E
0?
09
16
0D
1/
02
11
1'
0$
1%
1F
#432000
0#
03
04
1(
#444000
1#
13
14
0(
0@
0E
1D
1B
1A
0>
06
00
0&
0F
0B
0<
#456000
1!
0"
0#
15
08
03
04
1(
1>
1:
#468000
1#
13
14
0(
0G
0=
1F
1B
0:
0A
0>
0/
01
0'
0%
0B
1?
#480000
0#
03
04
1(
#492000
1#
13
14
0(
1G
1@
0F
1E
0?
1:
0D
1A
1>
1/
10
1'
1&
1F
1B
1?
#504000
0#
03
04
1(
#516000
1#
13
14
0(
1C
0E
1D
0B
0A
0?
17
12
1$
0F
1B
1<
#528000
0#
03
04
1(
#540000
1#
13
14
0(
0G
0@
1=
1F
0B
0:
07
1A
1;
0/
00
11
0'
0&
1%
0;
0<
#552000
0#
03
04
1(
#564000
1#
13
14
0(
1G
0C
0=
0F
1E
1?
1:
0A
0>
1/
02
01
1'
0$
0%
1F
1B
0?
#576000
0#
03
04
1(
#588000
1#
13
14
0(
1C
0E
0B
1?
12
1$
0F
#600000
0#
03
04
1(
#612000
1#
13
14
0(
0G
0C
1@
1F
0:
0D
1A
1>
0/
02
10
0'
0$
1&
0F
1B
0?
#624000
0#
03
04
1(
#636000
1#
13
14
0(
1C
0@
1D
0B
0A
1?
19
0>
12
00
1$
0&
1F
1<
#648000
0#
03
04
1(
#660000
1#
13
14
0(
1G
0C
1@
1=
0F
1E
0?
1:
09
16
0D
1>
1/
02
10
11
1'
0$
1&
1%
1F
#672000
0#
03
04
1(
#684000
1"
1#
18
13
14
0(
0:
0@
0E
1D
1B
1A
06
00
0&
0F
0B
0<
#696000
0#
03
04
1(
#708000
1#
13
14
0(
0G
0=
1F
1B
0A
0>
0/
01
0'
0%
0B
1?
#720000
0#
03
04
1(
#732000
1#
13
14
0(
1G
1@
0F
1E
0?
0D
1A
1>
1/
10
1'
1&
1F
1B
1?
#744000
0#
03
04
1(
#756000
1#
13
14
0(
1C
0E
1D
0B
0A
0?
19
17
12
1$
0F
1B
1<
#768000
0#
03
04
1(
#780000
1#
13
14
0(
0G
0@
1=
1F
0B
09
07
1A
0/
00
11
0'
0&
1%
0<
#792000
0#
03
04
1(
#804000
1#
13
14
0(
1G
0C
0=
0F
1E
1?
0A
0>
1/
02
01
1'
0$
0%
1F
1B
0?
#816000
0#
03
04
1(
#828000
1#
13
14
0(
1C
0E
0B
1A
1?
19
12
1$
0F
1B
1<
#840000
0#
03
04
1(
#852000
1#
13
14
0(
0G
1@
1=
1F
09
0D
1>
0/
10
11
0'
1&
1%
0<
0F
0?
#864000
0#
03
04
1(
#876000
1#
13
14
0(
0@
0=
1D
0B
0>
1?
19
00
01
0&
0%
1F
1<
#888000
0#
03
04
1(
#900000
1#
13
14
0(
1G
0C
1@
1=
0F
1E
1B
0?
09
16
0D
0A
1>
1/
02
10
11
1'
0$
1&
1%
1F
0B
#912000
0!
0"
0#
05
08
03
04
1(
1:
#924000
1#
13
14
0(
0@
0E
1D
1B
1A
0>
06
00
0&
0F
0B
0<
#936000
0#
03
04
1(
#948000
1#
13
14
0(
0G
0=
1F
1B
1?
0:
0A
0/
01
0'
0%
0B
#960000
0#
03
04
1(
#972000
1#
13
14
0(
1G
1@
0F
1E
0?
1:
0D
1A
1>
1/
10
1'
1&
1F
1B
1?
#984000
0#
03
04
1(
#996000
1#
13
14
0(
1C
0E
1D
0B
0A
0?
17
12
1$
0F
1B
1<
