labthirdsecond/simulation/qsim/labthirdsecond.msim.vcd
$comment
	File created using the following command:
		vcd file labthirdsecond.msim.vcd -direction
$end
$date
	Sat Nov 19 22:31:25 2022
$end
$version
	ModelSim Version 10.1d
$end
$timescale
	1ps
$end
$scope module labthirdsecond_vlg_vec_tst $end
$var reg 1 ! A $end
$var reg 1 " A1 $end
$var reg 1 # B $end
$var reg 1 $ B1 $end
$var reg 1 % K $end
$var reg 1 & Z $end
$var wire 1 ' P $end
$var wire 1 ( S1 $end
$var wire 1 ) S2 $end
$var wire 1 * sampler $end
$scope module i1 $end
$var wire 1 + gnd $end
$var wire 1 , vcc $end
$var wire 1 - unknown $end
$var tri1 1 . devclrn $end
$var tri1 1 / devpor $end
$var tri1 1 0 devoe $end
$var wire 1 1 S1~output_o $end
$var wire 1 2 S2~output_o $end
$var wire 1 3 P~output_o $end
$var wire 1 4 A~input_o $end
$var wire 1 5 B~input_o $end
$var wire 1 6 Z~input_o $end
$var wire 1 7 inst4~combout $end
$var wire 1 8 A1~input_o $end
$var wire 1 9 B1~input_o $end
$var wire 1 : K~input_o $end
$var wire 1 ; inst7~combout $end
$var wire 1 < inst11~combout $end
$var wire 1 = inst14~combout $end
$upscope $end
$upscope $end
$enddefinitions $end
#0
$dumpvars
0!
0"
0#
0$
0%
0&
0'
0(
0)
x*
0+
1,
x-
1.
1/
10
01
02
03
04
05
06
07
08
09
0:
0;
0<
0=
$end
#30000
1!
14
0*
17
11
1(
#60000
1"
0!
18
04
1*
1<
07
12
01
1)
0(
#90000
1!
14
0*
17
11
1(
#120000
1#
0"
0!
15
08
04
1*
0<
02
0)
#150000
1!
14
0*
1;
07
01
0(
1<
12
1)
#180000
1"
0!
18
04
1*
0;
1=
0<
17
13
02
11
1'
0)
1(
0=
1<
03
12
0'
1)
#210000
1!
14
0*
1;
07
01
0(
1=
0<
13
02
1'
0)
#240000
1$
0#
0"
0!
19
05
08
04
1*
0;
0=
1<
03
12
0'
1)
#270000
1!
14
0*
17
11
1(
#300000
1"
0!
18
04
1*
1=
0<
07
13
02
01
1'
0)
0(
#330000
1!
14
0*
17
11
1(
#360000
1#
0"
0!
15
08
04
1*
0=
1<
03
12
0'
1)
#390000
1!
14
0*
1;
07
01
0(
1=
0<
13
02
1'
0)
#420000
1"
0!
18
04
1*
0;
1<
17
12
11
1)
1(
0<
02
0)
#450000
1!
14
0*
1;
07
01
0(
1<
12
1)
#480000
1%
0$
0#
0"
0!
1:
09
05
08
04
1*
0;
0=
0<
03
02
0'
0)
#510000
1!
14
0*
17
11
1(
#540000
1"
0!
18
04
1*
1<
07
12
01
1)
0(
#570000
1!
14
0*
17
11
1(
#600000
1#
0"
0!
15
08
04
1*
1;
0<
02
0)
1=
1<
13
12
1'
1)
#630000
1!
14
0*
0;
07
01
0(
0=
0<
03
02
0'
0)
#660000
1"
0!
18
04
1*
1;
1<
17
12
11
1)
1(
0<
02
0)
#690000
1!
14
0*
0;
07
01
0(
1<
12
1)
#720000
1$
0#
0"
0!
19
05
08
04
1*
1=
13
1'
#750000
1!
14
0*
17
11
1(
#780000
1"
0!
18
04
1*
0=
0<
07
03
02
01
0'
0)
0(
#810000
1!
14
0*
17
11
1(
#840000
1#
0"
0!
15
08
04
1*
1;
1=
1<
13
12
1'
1)
0<
02
0)
#870000
1!
14
0*
0;
07
01
0(
1<
12
1)
#900000
1"
0!
18
04
1*
1;
0=
0<
17
03
02
11
0'
0)
1(
1=
1<
13
12
1'
1)
#930000
1!
14
0*
0;
07
01
0(
0=
0<
03
02
0'
0)
#960000
0%
0$
0#
0"
0!
0:
09
05
08
04
1*
#990000
1!
14
0*
17
11
1(
