labthirdfirst/simulation/qsim/labthirdfirst.msim.vcd
$comment
	File created using the following command:
		vcd file labthirdfirst.msim.vcd -direction
$end
$date
	Sun Nov 20 15:06:26 2022
$end
$version
	ModelSim Version 10.1d
$end
$timescale
	1ps
$end
$scope module labthirdfirst_vlg_vec_tst $end
$var reg 1 ! A $end
$var reg 1 " A1 $end
$var reg 1 # B $end
$var reg 1 $ B1 $end
$var reg 1 % K $end
$var reg 1 & Z $end
$var wire 1 ' P $end
$var wire 1 ( S $end
$var wire 1 ) S1 $end
$var wire 1 * sampler $end
$scope module i1 $end
$var wire 1 + gnd $end
$var wire 1 , vcc $end
$var wire 1 - unknown $end
$var tri1 1 . devclrn $end
$var tri1 1 / devpor $end
$var tri1 1 0 devoe $end
$var wire 1 1 P~output_o $end
$var wire 1 2 S1~output_o $end
$var wire 1 3 S~output_o $end
$var wire 1 4 A1~input_o $end
$var wire 1 5 K~input_o $end
$var wire 1 6 B1~input_o $end
$var wire 1 7 A~input_o $end
$var wire 1 8 Z~input_o $end
$var wire 1 9 B~input_o $end
$var wire 1 : inst1|inst7~combout $end
$var wire 1 ; inst2|inst7~combout $end
$var wire 1 < inst2|inst4~combout $end
$var wire 1 = inst1|inst4~combout $end
$upscope $end
$upscope $end
$enddefinitions $end
#0
$dumpvars
0!
0"
0#
0$
0%
0&
0'
0(
0)
x*
0+
1,
x-
1.
1/
10
01
02
03
04
05
06
07
08
09
0:
0;
0<
0=
$end
#30000
1!
17
0*
1=
13
1(
#60000
1"
0!
14
07
1*
1<
0=
12
03
1)
0(
#90000
1!
17
0*
1=
13
1(
#120000
1#
0"
0!
19
04
07
1*
0<
02
0)
#150000
1!
17
0*
1:
0=
03
0(
1<
12
1)
#180000
1"
0!
14
07
1*
0:
0<
1;
1=
02
11
13
0)
1'
1(
1<
0;
12
01
1)
0'
#210000
1!
17
0*
1:
0=
03
0(
0<
1;
02
11
0)
1'
#240000
1$
0#
0"
0!
16
09
04
07
1*
0:
1<
0;
12
01
1)
0'
#270000
1!
17
0*
1=
13
1(
#300000
1"
0!
14
07
1*
0<
1;
0=
02
11
03
0)
1'
0(
#330000
1!
17
0*
1=
13
1(
#360000
1#
0"
0!
19
04
07
1*
1<
0;
12
01
1)
0'
#390000
1!
17
0*
1:
0=
03
0(
0<
1;
02
11
0)
1'
#420000
1"
0!
14
07
1*
0:
1<
1=
12
13
1)
1(
0<
02
0)
#450000
1!
17
0*
1:
0=
03
0(
1<
12
1)
#480000
1%
0$
0#
0"
0!
15
06
09
04
07
1*
0:
0<
0;
02
01
0)
0'
#510000
1!
17
0*
1=
13
1(
#540000
1"
0!
14
07
1*
1<
0=
12
03
1)
0(
#570000
1!
17
0*
1=
13
1(
#600000
1#
0"
0!
19
04
07
1*
1:
0<
02
0)
1<
1;
12
11
1)
1'
#630000
1!
17
0*
0:
0=
03
0(
0<
0;
02
01
0)
0'
#660000
1"
0!
14
07
1*
1:
1<
1=
12
13
1)
1(
0<
02
0)
#690000
1!
17
0*
0:
0=
03
0(
1<
12
1)
#720000
1$
0#
0"
0!
16
09
04
07
1*
1;
11
1'
#750000
1!
17
0*
1=
13
1(
#780000
1"
0!
14
07
1*
0<
0;
0=
02
01
03
0)
0'
0(
#810000
1!
17
0*
1=
13
1(
#840000
1#
0"
0!
19
04
07
1*
1:
1<
1;
12
11
1)
1'
0<
02
0)
#870000
1!
17
0*
0:
0=
03
0(
1<
12
1)
#900000
1"
0!
14
07
1*
1:
0<
0;
1=
02
01
13
0)
0'
1(
1<
1;
12
11
1)
1'
#930000
1!
17
0*
0:
0=
03
0(
0<
0;
02
01
0)
0'
#960000
0%
0$
0#
0"
0!
05
06
09
04
07
1*
#990000
1!
17
0*
1=
13
1(
