labfourth/simulation/qsim/labfourth.msim.vcd
$comment
	File created using the following command:
		vcd file labfourth.msim.vcd -direction
$end
$date
	Mon Nov 28 00:14:10 2022
$end
$version
	ModelSim Version 10.1d
$end
$timescale
	1ps
$end
$scope module labfourth_vlg_vec_tst $end
$var reg 1 ! a $end
$var reg 1 " b $end
$var reg 1 # clock $end
$var wire 1 $ q [3] $end
$var wire 1 % q [2] $end
$var wire 1 & q [1] $end
$var wire 1 ' q [0] $end
$var wire 1 ( sampler $end
$scope module i1 $end
$var wire 1 ) gnd $end
$var wire 1 * vcc $end
$var wire 1 + unknown $end
$var tri1 1 , devclrn $end
$var tri1 1 - devpor $end
$var tri1 1 . devoe $end
$var wire 1 / q[3]~output_o $end
$var wire 1 0 q[2]~output_o $end
$var wire 1 1 q[1]~output_o $end
$var wire 1 2 q[0]~output_o $end
$var wire 1 3 clock~input_o $end
$var wire 1 4 clock~inputclkctrl_outclk $end
$var wire 1 5 b~input_o $end
$var wire 1 6 inst37~6_combout $end
$var wire 1 7 inst37~7_combout $end
$var wire 1 8 a~input_o $end
$var wire 1 9 inst37~4_combout $end
$var wire 1 : inst37~3_combout $end
$var wire 1 ; inst37~8_combout $end
$var wire 1 < inst37~9_combout $end
$var wire 1 = inst33~q $end
$var wire 1 > inst25~7_combout $end
$var wire 1 ? inst25~6_combout $end
$var wire 1 @ inst25~4_combout $end
$var wire 1 A inst25~3_combout $end
$var wire 1 B inst25~8_combout $end
$var wire 1 C inst25~9_combout $end
$var wire 1 D inst29~q $end
$var wire 1 E inst24~4_combout $end
$var wire 1 F inst24~5_combout $end
$var wire 1 G inst31~q $end
$var wire 1 H inst39~4_combout $end
$var wire 1 I inst39~5_combout $end
$var wire 1 J inst27~q $end
$upscope $end
$upscope $end
$enddefinitions $end
#0
$dumpvars
0!
0"
0#
0'
0&
0%
0$
x(
0)
1*
x+
1,
1-
1.
0/
00
01
02
03
04
05
16
17
08
19
1:
1;
1<
0=
0>
0?
0@
0A
0B
0C
0D
0E
1F
0G
1H
0I
0J
$end
#12000
1#
13
14
0(
1G
1=
1I
0F
1E
11
12
1&
1'
1F
#24000
0#
03
04
1(
#36000
1#
13
14
0(
1J
0H
0E
1A
1@
1?
1>
0:
09
07
06
1/
1$
0F
1B
0;
1C
0<
#48000
0#
03
04
1(
#60000
1#
13
14
0(
0G
1D
0=
0I
1E
0@
0>
19
17
01
10
02
0&
1%
0'
1F
#72000
0#
03
04
1(
#84000
1#
13
14
0(
0J
1G
1H
0E
1@
1>
09
07
1I
0F
0/
11
0$
1&
0I
#96000
0#
03
04
1(
#108000
1#
13
14
0(
0G
1I
1:
19
17
16
01
0&
1;
1<
#120000
0#
03
04
1(
#132000
1#
13
14
0(
1J
1=
1E
0?
0>
07
06
1/
12
1$
1'
1F
#144000
0#
03
04
1(
#156000
1#
13
14
0(
1G
0I
0F
0E
1?
1>
17
16
11
1&
1F
#168000
0#
03
04
1(
#180000
1#
13
14
0(
0J
0H
1E
0/
0$
0F
#192000
0#
03
04
1(
#204000
1#
13
14
0(
0G
1F
0E
0A
0@
0?
0>
0:
09
07
06
01
0&
0F
0B
0;
0C
0<
#216000
0#
03
04
1(
#228000
1"
1#
15
13
14
0(
0D
0=
1H
1F
1:
19
17
16
00
02
0%
0'
1<
#240000
0#
03
04
1(
#252000
1#
13
14
0(
1G
1=
1I
0F
1E
11
12
1&
1'
1F
#264000
0#
03
04
1(
#276000
1#
13
14
0(
1J
0E
1A
1@
1?
1>
0:
09
07
06
1/
1$
0F
1C
0<
#288000
0#
03
04
1(
#300000
1#
13
14
0(
0G
1D
0=
1E
0@
0>
19
17
0H
01
10
02
0&
1%
0'
1F
0I
#312000
0#
03
04
1(
#324000
1#
13
14
0(
0J
1G
1H
0E
1@
1>
09
07
1I
0F
0/
11
0$
1&
0I
#336000
0#
03
04
1(
#348000
1#
13
14
0(
0G
1I
1:
19
17
16
01
0&
1<
#360000
0#
03
04
1(
#372000
1#
13
14
0(
1J
1=
1E
0?
0>
07
06
1/
12
1$
1'
1F
0C
0<
#384000
0#
03
04
1(
#396000
1#
13
14
0(
1G
0D
0=
1?
1>
17
16
0H
11
00
02
1&
0%
0'
1C
1<
0I
#408000
0#
03
04
1(
#420000
1#
13
14
0(
0J
1D
1=
0F
0/
10
12
0$
1%
1'
#432000
0#
03
04
1(
#444000
1#
13
14
0(
0G
1F
0E
0A
0@
0?
0>
0:
09
07
06
01
0&
0F
0C
0<
#456000
1!
0"
0#
18
05
03
04
1(
#468000
1#
13
14
0(
0D
0=
1H
1F
1:
19
17
16
00
02
0%
0'
1;
1<
#480000
0#
03
04
1(
#492000
1#
13
14
0(
1G
1=
1I
0F
1E
11
12
1&
1'
1F
#504000
0#
03
04
1(
#516000
1#
13
14
0(
1J
0H
0E
1A
1@
1?
1>
0:
09
07
06
1/
1$
0F
1B
0;
1C
0<
#528000
0#
03
04
1(
#540000
1#
13
14
0(
0G
1D
0=
0I
0@
0>
19
17
01
10
02
0&
1%
0'
0B
1;
0C
1<
#552000
0#
03
04
1(
#564000
1#
13
14
0(
0J
0D
1=
1H
0A
0?
1:
16
0/
00
12
0$
0%
1'
1I
#576000
0#
03
04
1(
#588000
1#
13
14
0(
1J
0H
1E
1?
1>
0:
09
07
06
1/
1$
0I
1F
0;
0<
#600000
0#
03
04
1(
#612000
1#
13
14
0(
0J
1G
0=
1H
0E
0?
0>
0/
11
02
0$
1&
0'
1I
0F
#624000
0#
03
04
1(
#636000
1#
13
14
0(
1J
0G
0H
1A
1@
1?
1>
1:
19
17
16
0I
1F
1/
01
1$
0&
1B
1;
1C
1<
#648000
0#
03
04
1(
#660000
1#
13
14
0(
0J
1G
1D
1=
1E
0/
11
10
12
0$
1&
1%
1'
0F
#672000
0#
03
04
1(
#684000
1"
1#
15
13
14
0(
0G
1F
0E
0A
0@
0?
0>
0:
09
07
06
01
0&
0F
0C
0<
#696000
0#
03
04
1(
#708000
1#
13
14
0(
0D
0=
1H
1F
1:
19
17
16
00
02
0%
0'
1<
#720000
0#
03
04
1(
#732000
1#
13
14
0(
1G
1=
1I
0F
1E
11
12
1&
1'
1F
#744000
0#
03
04
1(
#756000
1#
13
14
0(
1J
0E
1A
1@
1?
1>
0:
09
07
06
1/
1$
0F
1C
0<
#768000
0#
03
04
1(
#780000
1#
13
14
0(
0G
1D
0=
0@
0>
19
17
0H
01
10
02
0&
1%
0'
0C
1<
0I
#792000
0#
03
04
1(
#804000
1#
13
14
0(
0J
0D
1=
1H
0A
0?
1:
16
0/
00
12
0$
0%
1'
1I
#816000
0#
03
04
1(
#828000
1#
13
14
0(
1J
1E
1?
1>
0:
09
07
06
1/
1$
1F
1C
0<
#840000
0#
03
04
1(
#852000
1#
13
14
0(
1G
1D
0=
0I
0F
0?
0>
0H
11
10
02
1&
1%
0'
0C
1I
#864000
0#
03
04
1(
#876000
1#
13
14
0(
0G
0D
0I
1F
0E
1A
1@
1?
1>
1:
19
17
16
01
00
0&
0%
1C
1<
#888000
0#
03
04
1(
#900000
1#
13
14
0(
0J
1G
1D
1=
1E
0/
11
10
12
0$
1&
1%
1'
0F
#912000
0!
0"
0#
08
05
03
04
1(
#924000
1#
13
14
0(
0G
1F
0E
0A
0@
0?
0>
0:
09
07
06
01
0&
0F
0B
0;
0C
0<
#936000
0#
03
04
1(
#948000
1#
13
14
0(
0D
0=
1H
1F
1:
19
17
16
00
02
0%
0'
1;
1<
#960000
0#
03
04
1(
#972000
1#
13
14
0(
1G
1=
1I
0F
1E
11
12
1&
1'
1F
#984000
0#
03
04
1(
#996000
1#
13
14
0(
1J
0H
0E
1A
1@
1?
1>
0:
09
07
06
1/
1$
0F
1B
0;
1C
0<
