labthirdthird/simulation/qsim/labthirdthird.msim.vcd
$comment
	File created using the following command:
		vcd file labthirdthird.msim.vcd -direction
$end
$date
	Sun Nov 20 16:12:48 2022
$end
$version
	ModelSim Version 10.1d
$end
$timescale
	1ps
$end
$scope module labthirdthird_vlg_vec_tst $end
$var reg 1 ! a $end
$var reg 1 " a1 $end
$var reg 1 # b $end
$var reg 1 $ b1 $end
$var reg 1 % k $end
$var reg 1 & z $end
$var wire 1 ' p $end
$var wire 1 ( p0 $end
$var wire 1 ) s $end
$var wire 1 * s1 $end
$var wire 1 + sampler $end
$scope module i1 $end
$var wire 1 , gnd $end
$var wire 1 - vcc $end
$var wire 1 . unknown $end
$var tri1 1 / devclrn $end
$var tri1 1 0 devpor $end
$var tri1 1 1 devoe $end
$var wire 1 2 p0~output_o $end
$var wire 1 3 p~output_o $end
$var wire 1 4 s1~output_o $end
$var wire 1 5 s~output_o $end
$var wire 1 6 k~input_o $end
$var wire 1 7 z~input_o $end
$var wire 1 8 a~input_o $end
$var wire 1 9 b~input_o $end
$var wire 1 : p0~0_combout $end
$var wire 1 ; a1~input_o $end
$var wire 1 < b1~input_o $end
$var wire 1 = p~0_combout $end
$var wire 1 > s1~0_combout $end
$var wire 1 ? s~0_combout $end
$upscope $end
$upscope $end
$enddefinitions $end
#0
$dumpvars
0!
0"
0#
0$
0%
0&
0'
0(
0)
0*
x+
0,
1-
x.
1/
10
11
02
03
04
05
06
07
08
09
0:
0;
0<
0=
0>
0?
$end
#30000
1!
18
0+
1?
15
1)
#60000
1"
0!
1;
08
1+
1>
0?
14
05
1*
0)
#90000
1!
18
0+
1?
15
1)
#120000
1#
0"
0!
19
0;
08
1+
0>
04
0*
#150000
1!
18
0+
0?
1:
05
12
0)
1(
1>
14
1*
#180000
1"
0!
1;
08
1+
0>
1=
1?
0:
04
13
15
02
0*
1'
1)
0(
1>
0=
14
03
1*
0'
#210000
1!
18
0+
0?
1:
05
12
0)
1(
0>
1=
04
13
0*
1'
#240000
1$
0#
0"
0!
1<
09
0;
08
1+
0:
02
0(
1>
0=
14
03
1*
0'
#270000
1!
18
0+
1?
15
1)
#300000
1"
0!
1;
08
1+
0>
1=
0?
04
13
05
0*
1'
0)
#330000
1!
18
0+
1?
15
1)
#360000
1#
0"
0!
19
0;
08
1+
1>
0=
14
03
1*
0'
#390000
1!
18
0+
0?
1:
05
12
0)
1(
0>
1=
04
13
0*
1'
#420000
1"
0!
1;
08
1+
1>
1?
0:
14
15
02
1*
1)
0(
0>
04
0*
#450000
1!
18
0+
0?
1:
05
12
0)
1(
1>
14
1*
#480000
1%
0$
0#
0"
0!
16
0<
09
0;
08
1+
0:
02
0(
0>
0=
04
03
0*
0'
#510000
1!
18
0+
1?
15
1)
#540000
1"
0!
1;
08
1+
1>
0?
14
05
1*
0)
#570000
1!
18
0+
1?
15
1)
#600000
1#
0"
0!
19
0;
08
1+
1:
0>
12
04
1(
0*
1>
1=
14
13
1*
1'
#630000
1!
18
0+
0?
0:
05
02
0)
0(
0>
0=
04
03
0*
0'
#660000
1"
0!
1;
08
1+
1>
1?
1:
14
15
12
1*
1)
1(
0>
04
0*
#690000
1!
18
0+
0?
0:
05
02
0)
0(
1>
14
1*
#720000
1$
0#
0"
0!
1<
09
0;
08
1+
1=
13
1'
#750000
1!
18
0+
1?
15
1)
#780000
1"
0!
1;
08
1+
0>
0=
0?
04
03
05
0*
0'
0)
#810000
1!
18
0+
1?
15
1)
#840000
1#
0"
0!
19
0;
08
1+
1:
1>
1=
12
14
13
1(
1*
1'
0>
04
0*
#870000
1!
18
0+
0?
0:
05
02
0)
0(
1>
14
1*
#900000
1"
0!
1;
08
1+
0>
0=
1?
1:
04
03
15
12
0*
0'
1)
1(
1>
1=
14
13
1*
1'
#930000
1!
18
0+
0?
0:
05
02
0)
0(
0>
0=
04
03
0*
0'
#960000
0%
0$
0#
0"
0!
06
0<
09
0;
08
1+
#990000
1!
18
0+
1?
15
1)
